<svg xmlns="http://www.w3.org/2000/svg" xmlns:xlink="http://www.w3.org/1999/xlink" width="105" height="84"><rect id="backgroundrect" width="100%" height="100%" x="0" y="0" fill="none" stroke="none"/>
    <defs>
        <linearGradient id="PSgrad_0" x1="0%" x2="70.711%" y1="0%" y2="70.711%">
            <stop offset="0%" stop-color="rgb(189,102,206)" stop-opacity="0.8"/>
            <stop offset="100%" stop-color="rgb(189,102,206)" stop-opacity="0"/>
        </linearGradient>

    </defs>
    
    
    
    
    
<g class="currentLayer" style=""><title>Layer 1</title><path fill-rule="evenodd" fill-opacity="0" fill="rgb(255, 255, 255)" d="M-9.894371016949677e-9,55.055 C-9.894371016949677e-9,39.843 11.672999990105628,27.511 26.071999990105628,27.511 C40.46999999010563,27.511 52.14299999010563,39.843 52.14299999010563,55.055 C52.14299999010563,56.009 -9.894371016949677e-9,56.009 -9.894371016949677e-9,55.055 zM26.071999990105628,24.565 C19.65399999010563,24.565 14.451999990105628,19.066 14.451999990105628,12.283 C14.451999990105628,5.499 19.65399999010563,0 26.071999990105628,0 C32.488999990105626,0 37.69099999010563,5.499 37.69099999010563,12.283 C37.69099999010563,19.066 32.488999990105626,24.565 26.071999990105628,24.565 z" id="svg_1" class=""/><path fill="url(#PSgrad_0)" d="M-9.894371016949677e-9,55.055 C-9.894371016949677e-9,39.843 11.672999990105628,27.511 26.071999990105628,27.511 C40.46999999010563,27.511 52.14299999010563,39.843 52.14299999010563,55.055 C52.14299999010563,56.009 -9.894371016949677e-9,56.009 -9.894371016949677e-9,55.055 zM26.071999990105628,24.565 C19.65399999010563,24.565 14.451999990105628,19.066 14.451999990105628,12.283 C14.451999990105628,5.499 19.65399999010563,0 26.071999990105628,0 C32.488999990105626,0 37.69099999010563,5.499 37.69099999010563,12.283 C37.69099999010563,19.066 32.488999990105626,24.565 26.071999990105628,24.565 z" id="svg_2" class=""/><path fill-rule="evenodd" fill-opacity="0" fill="rgb(255, 255, 255)" d="M27.73099999010563,66.973 C27.73099999010563,51.761 39.40299999010563,39.429 53.80199999010563,39.429 C68.20099999010563,39.429 79.87299999010563,51.761 79.87299999010563,66.973 C79.87299999010563,67.927 27.73099999010563,67.927 27.73099999010563,66.973 zM53.80199999010563,36.484 C47.38499999010563,36.484 42.18199999010563,30.984 42.18199999010563,24.201 C42.18199999010563,17.417 47.38499999010563,11.918 53.80199999010563,11.918 C60.21899999010563,11.918 65.42199999010563,17.417 65.42199999010563,24.201 C65.42199999010563,30.984 60.21899999010563,36.484 53.80199999010563,36.484 z" id="svg_3" class=""/><path fill="url(#PSgrad_0)" d="M27.73099999010563,66.973 C27.73099999010563,51.761 39.40299999010563,39.429 53.80199999010563,39.429 C68.20099999010563,39.429 79.87299999010563,51.761 79.87299999010563,66.973 C79.87299999010563,67.927 27.73099999010563,67.927 27.73099999010563,66.973 zM53.80199999010563,36.484 C47.38499999010563,36.484 42.18199999010563,30.984 42.18199999010563,24.201 C42.18199999010563,17.417 47.38499999010563,11.918 53.80199999010563,11.918 C60.21899999010563,11.918 65.42199999010563,17.417 65.42199999010563,24.201 C65.42199999010563,30.984 60.21899999010563,36.484 53.80199999010563,36.484 z" id="svg_4" class=""/><path fill-rule="evenodd" fill="rgb(190, 103, 207)" d="M82.82599999010563,83.583 C70.64899999010562,83.583 60.741999990105626,73.677 60.741999990105626,61.5 C60.741999990105626,49.323 70.64899999010562,39.417 82.82599999010563,39.417 C95.00299999010564,39.417 104.90899999010563,49.323 104.90899999010563,61.5 C104.90899999010563,73.677 95.00299999010564,83.583 82.82599999010563,83.583 zM82.82599999010563,41.417 C71.75199999010563,41.417 62.741999990105626,50.426 62.741999990105626,61.5 C62.741999990105626,72.574 71.75199999010563,81.583 82.82599999010563,81.583 C93.89999999010563,81.583 102.90899999010563,72.574 102.90899999010563,61.5 C102.90899999010563,50.426 93.89999999010563,41.417 82.82599999010563,41.417 zM91.61099999010563,59.864 C89.12099999010563,59.864 87.09699999010563,57.84 87.09699999010563,55.351 C87.09699999010563,52.862 89.12099999010563,50.837 91.61099999010563,50.837 C94.09999999010563,50.837 96.12399999010563,52.862 96.12399999010563,55.351 C96.12399999010563,57.84 94.09999999010563,59.864 91.61099999010563,59.864 zM91.61099999010563,52.837 C90.22499999010563,52.837 89.09699999010563,53.965 89.09699999010563,55.351 C89.09699999010563,56.737 90.22499999010563,57.864 91.61099999010563,57.864 C92.99599999010563,57.864 94.12399999010563,56.737 94.12399999010563,55.351 C94.12399999010563,53.965 92.99599999010563,52.837 91.61099999010563,52.837 zM90.61699999010563,66.073 C90.68299999010563,65.524 91.17599999010562,65.129 91.72899999010563,65.198 C92.27799999010563,65.263 92.66899999010563,65.761 92.60399999010563,66.309 C92.04399999010563,71.003 88.11499999010563,74.157 82.82599999010563,74.157 C77.54999999010563,74.157 73.62099999010563,71.004 73.04899999010563,66.312 C72.98199999010563,65.764 73.37199999010564,65.265 73.91999999010562,65.198 C74.46499999010562,65.117 74.96699999010563,65.522 75.03399999010563,66.07 C75.48499999010563,69.768 78.54299999010563,72.157 82.82599999010563,72.157 C87.11899999010564,72.157 90.17699999010563,69.769 90.61699999010563,66.073 zM74.04099999010563,59.864 C71.55199999010563,59.864 69.52699999010562,57.84 69.52699999010562,55.351 C69.52699999010562,52.862 71.55199999010563,50.837 74.04099999010563,50.837 C76.52999999010562,50.837 78.55499999010563,52.862 78.55499999010563,55.351 C78.55499999010563,57.84 76.52999999010562,59.864 74.04099999010563,59.864 zM74.04099999010563,52.837 C72.65499999010562,52.837 71.52699999010562,53.965 71.52699999010562,55.351 C71.52699999010562,56.737 72.65499999010562,57.864 74.04099999010563,57.864 C75.42799999010563,57.864 76.55499999010563,56.737 76.55499999010563,55.351 C76.55499999010563,53.965 75.42799999010563,52.837 74.04099999010563,52.837 z" id="svg_5" class=""/></g></svg>